Species,Individual,Sensor_Type,Location,Season,Resource_Level,Sex,Mass_kg,Daily_Distance_m,Daily_Distance_Method,Reference,N_Individuals,Sex_Distribution,Max_Interfix_Interval_sec,Min_Interfix_Interval_sec
Loxodonta africana,M86,gps,"Amboseli National Park, Kenya",Dry/Wet,Rich/Poor,M,,10300,Mean movement per day,Douglas-Hamilton 1998,1,1 Male,10800,3600
Loxodonta africana,M169,gps,"Amboseli National Park, Kenya",Dry/Wet,Rich/Poor,M,,8600,Mean movement per day,Douglas-Hamilton 1998,1,1 Male,10800,3600
Cervus elaphus,,gps,"Central Ontario, Canada",Winter,Poor,F,,1606.79,Mean movement per day,McGeachy 2014,4,4 Females,3600,3600
Cervus elaphus,,gps,"Central Ontario, Canada",Spring,Rich,F,,3412.64,Mean movement per day,McGeachy 2014,6,6 Females,3600,3600
Cervus elaphus,,gps,"Central Ontario, Canada",Summer,Rich,F,,3218.17,Mean movement per day,McGeachy 2014,6,6 Females,3600,3600
Cervus elaphus,,gps,"Central Ontario, Canada",Autumn,Rich,F,,3062.78,Mean movement per day,McGeachy 2014,5,5 Females,3600,3600
Lepus europaeus,,gps,"Zwerndorf, Austria",Summer,Rich,M/F,,609.28,Sum of median distance per hour,Schai-Braun et al. 2012,9,"4 Males, 5 Females",,3600
Ovis aries,,gps,"Canterbury, New Zealand",Autumn,Rich,F,,5300,Mean movement per day,Steer 2012,16,16 Females,,900
Odocoileus hemionus,,radio telemetry,"Starkey Experimental Forest and Range, Oregon, USA",Spring,Rich,F,,3310.77,Sum of mean distance per hour,Ager et al. 2003,58,58 Females,14400,300
Odocoileus hemionus,,radio telemetry,"Starkey Experimental Forest and Range, Oregon, USA",Summer,Rich,F,,2589.35,Sum of mean distance per hour,Ager et al. 2003,58,58 Females,14400,300
Odocoileus hemionus,,radio telemetry,"Starkey Experimental Forest and Range, Oregon, USA",Summer/Autumn,Rich,F,,2845.39,Sum of mean distance per hour,Ager et al. 2003,58,58 Females,14400,300
Odocoileus hemionus,,radio telemetry,"Starkey Experimental Forest and Range, Oregon, USA",Autumn,Rich,F,,2336.63,Sum of mean distance per hour,Ager et al. 2003,58,58 Females,14400,300
Cervus elaphus,,gps,"Sopron, Poland",Summer,Rich,M/F,,3730.31,Sum of mean distance per hour,Nahlik et al. 2008 ,6,"1 Male, 5 Female",,3600
Cervus elaphus,,gps,"Sopron, Poland",Winter,Poor,M/F,,4449.41,Sum of mean distance per hour,Nahlik et al. 2008 ,6,"1 Male, 5 Female",,3600
Cervus elaphus,,gps,"Zala, Poland",Summer,Rich,M/F,,3848,Sum of mean distance per hour,Nahlik et al. 2008 ,7,"4 Males, 3 Females",,3600
Cervus elaphus,,gps,"Zala, Poland",Winter,Poor,M/F,,6545.5,Sum of mean distance per hour,Nahlik et al. 2008 ,7,"4 Males, 3 Females",,3600
Lepus americanus,,gps,"Fairbanks, Alaska, USA",Conifer/Winter,Poor,M/F,,632.48,Sum of mean distance per hour,Feierabend 2013,6,"2 Males, 4 Females",7200,1800
Lepus americanus,,gps,"Fairbanks, Alaska, USA",Deciduous/Summer,Rich,F,,511.79,Sum of mean distance per hour,Feierabend 2013,12,12 Females,7200,1800
Odocoileus virginianus,,gps,"Samuel Roberts Noble Foundation Wildlife Unit, Oklahoma, USA",Spring,Rich,F,,5843.24,Sum of mean distance per hour,Webb et al. 2010,10,10 Females,,900
Odocoileus virginianus,,gps,"Samuel Roberts Noble Foundation Wildlife Unit, Oklahoma, USA",Spring,Rich,M,,5815.91,Sum of mean distance per hour,Webb et al. 2010,10,10 Males,,900
Odocoileus virginianus,,gps,"Samuel Roberts Noble Foundation Wildlife Unit, Oklahoma, USA",Summer,Rich,F,,3505.3,Sum of mean distance per hour,Webb et al. 2010,10,10 Females,,900
Odocoileus virginianus,,gps,"Samuel Roberts Noble Foundation Wildlife Unit, Oklahoma, USA",Winter,Poor,M,,5807.86,Sum of mean distance per hour,Webb et al. 2010,6,6 Males,,900
Equus,,gps,"Kruger National Park, South Africa",Early dry,Poor,,,6312.26,Sum of distance per hour,Owen-Smith et al. 2010,,,,
Equus,,gps,"Kruger National Park, South Africa",Late dry,Poor,,,8574.63,Sum of distance per hour,Owen-Smith et al. 2010,,,,
Hippotragus niger,,gps,"Kruger National Park, South Africa",Early dry,Poor,,,3530.21,Sum of distance per hour,Owen-Smith et al. 2010,,,,
Hippotragus niger,,gps,"Kruger National Park, South Africa",Late dry,Poor,,,8284.68,Sum of distance per hour,Owen-Smith et al. 2010,,,,
Syncerus caffer,,gps,"Kruger National Park, South Africa",Early dry,Poor,,,4855.68,Sum of distance per hour,Owen-Smith et al. 2010,,,,
Syncerus caffer,,gps,"Kruger National Park, South Africa",Late dry,Poor,,,6785.49,Sum of distance per hour,Owen-Smith et al. 2010,,,,
Ovis aries,,gps,"Fowlers Gap, Australia",Autumn,Rich,,,7913,Mean movement per day,Munn et al. 2013,5,,,600
Kobus kob,,gps,South Sudan,Dry,Poor,F,,6730,Mean movement per day,Morjan 2014,2,2 Females,86400,17280
Kobus kob,,gps,South Sudan,Wet,Rich,F,,6880,Mean movement per day,Morjan 2014,2,2 Females,86400,17280
Cervus elaphus,,gps,"Glass Mountains, USA",Winter,Poor,M,,2850.87,Mean movement per day,Skrobarczyk 2011,4,4 Males,,14400
Cervus elaphus,,gps,"Glass Mountains, USA",Spring,Rich,M,,2990.98,Mean movement per day,Skrobarczyk 2011,4,4 Males,,14400
Cervus elaphus,,gps,"Glass Mountains, USA",Summer,Rich,M,,2639.61,Mean movement per day,Skrobarczyk 2011,4,4 Males,,14400
Cervus elaphus,,gps,"Glass Mountains, USA",Autumn,Rich,M,,3100.06,Mean movement per day,Skrobarczyk 2011,4,4 Males,,14400
Tapirus terrestris,TTF1A,gps,"Madre de Dios, Peru",Dry/Wet,Rich/Poor,F,,4700,Mean movement per day,Tobler 2008,1,1 Female,,900
Tapirus terrestris,TTF1B,gps,"Madre de Dios, Peru",Wet,Rich,F,,6700,Mean movement per day,Tobler 2008,1,1 Female,,600
Tapirus terrestris,TTF5,gps,"Madre de Dios, Peru",Dry,Poor,F,,6400,Mean movement per day,Tobler 2008,1,1 Female,,900
Tapirus terrestris,TTF6,gps,"Madre de Dios, Peru",Dry,Poor,F,,3600,Mean movement per day,Tobler 2008,1,1 Female,,900
Tapirus terrestris,TTM7,gps,"Madre de Dios, Peru",Dry/Wet,Rich/Poor,M,,4900,Mean movement per day,Tobler 2008,1,1 Male,,900
Tapirus terrestris,TTM10,gps,"Madre de Dios, Peru",Wet,Rich,M,,5400,Mean movement per day,Tobler 2008,1,1 Male,,600
Apodemus flavicollis,M1,radio telemetry,"Fuhrberg, Germany",Summer,Rich,M,0.04,534.1,Mean movement per night,Schwarzenberger and Klingel 1995,1,1 Male,,
Apodemus flavicollis,M2,radio telemetry,"Fuhrberg, Germany",Summer,Rich,M,0.031,487.5,Mean movement per night,Schwarzenberger and Klingel 1995,1,1 Male,,
Apodemus flavicollis,M3,radio telemetry,"Fuhrberg, Germany",Summer,Rich,M,0.028,425.3,Mean movement per night,Schwarzenberger and Klingel 1995,1,1 Male,,
Apodemus flavicollis,W1,radio telemetry,"Fuhrberg, Germany",Summer,Rich,F,0.025,303.7,Mean movement per night,Schwarzenberger and Klingel 1995,1,1 Female,,
Apodemus flavicollis,W2,radio telemetry,"Fuhrberg, Germany",Summer,Rich,F,0.033,308.6,Mean movement per night,Schwarzenberger and Klingel 1995,1,1 Female,,
Apodemus sylvaticus,,radio telemetry,Europe,Summer,Rich,M/F,,350,,Carbone et al 2005/Bright and Morris 1991,34,"17 Males, 17 Females",,
Ceratotherium simum,,radio telemetry,,Wet,Rich,M/F,,4500,Mean movement per day,Owen-Smith 1989,,,,
Dipodomys spectabilis,,radio telemetry,"New Mexico, USA",Spring/Summer/Autumn,Rich,,,350,Mean movement per night,Schroder 1979,,,,
Myopus schisticolor,,radio telemetry,"Varaldskogen, Norway",Summer,Rich,M,,217,Mean movement per day,Andreassen and Bondrup-Nielsen 1991,3,3 Males,,
Myopus schisticolor,,radio telemetry,"Varaldskogen, Norway",Summer,Rich,F,,21,Mean movement per day,Andreassen and Bondrup-Nielsen 1991,5,5 Females,,
Rattus rattus,M1,radio telemetry,"North Island, New Zealand",Summer,Rich,M,,737.629,Mean movement per night,Hooker and Innes 1995,1,1 Male,,
Rattus rattus,M2,radio telemetry,"North Island, New Zealand",Summer,Rich,M,,873.415,Mean movement per night,Hooker and Innes 1995,1,1 Male,,
Rattus rattus,M3,radio telemetry,"North Island, New Zealand",Summer,Rich,M,,543.4553,Mean movement per night,Hooker and Innes 1995,1,1 Male,,
Rattus rattus,M4,radio telemetry,"North Island, New Zealand",Summer,Rich,M,,565.9761,Mean movement per night,Hooker and Innes 1995,1,1 Male,,
Rattus rattus,F1,radio telemetry,"North Island, New Zealand",Summer,Rich,F,,642.117,Mean movement per night,Hooker and Innes 1995,1,1 Female,,
Rattus rattus,F2,radio telemetry,"North Island, New Zealand",Summer,Rich,F,,651.323,Mean movement per night,Hooker and Innes 1995,1,1 Female,,
Rattus rattus,F3,radio telemetry,"North Island, New Zealand",Summer,Rich,F,,528.9332,Mean movement per night,Hooker and Innes 1995,1,1 Female,,
Rattus rattus,F4,radio telemetry,"North Island, New Zealand",Summer,Rich,F,,470.6145,Mean movement per night,Hooker and Innes 1995,1,1 Female,,
Cervus elaphus,E16,gps,"New Mexico, USA",Spring/Summer/Autumn,Rich,F,,3889,Mean movement per day,DeVore 2014,1,1 Female,,900
Cervus elaphus,E18,gps,"New Mexico, USA",Spring/Summer/Autumn,Rich,F,,5066,Mean movement per day,DeVore 2014,1,1 Female,,900
Cervus elaphus,E20,gps,"New Mexico, USA",Spring/Summer/Autumn,Rich,F,,5030,Mean movement per day,DeVore 2014,1,1 Female,,900
Cervus elaphus,E32,gps,"New Mexico, USA",Spring/Summer/Autumn,Rich,F,,3251,Mean movement per day,DeVore 2014,1,1 Female,,900
Cervus elaphus,E34,gps,"New Mexico, USA",Spring/Summer/Autumn,Rich,F,,6039,Mean movement per day,DeVore 2014,1,1 Female,,900
Cervus elaphus,E39,gps,"New Mexico, USA",Spring/Summer/Autumn,Rich,F,,4922,Mean movement per day,DeVore 2014,1,1 Female,,900
Cervus elaphus,E04,gps,"New Mexico, USA",Spring/Summer/Autumn,Rich,F,,5167,Mean movement per day,DeVore 2014,1,1 Female,,900
Cervus elaphus,E49,gps,"New Mexico, USA",Spring/Summer/Autumn,Rich,F,,6317,Mean movement per day,DeVore 2014,1,1 Female,,900
Cervus elaphus,E59,gps,"New Mexico, USA",Spring/Summer/Autumn,Rich,F,,5435,Mean movement per day,DeVore 2014,1,1 Female,,900
Cephalophus callipygus,C1,radio telemetry,Gabon,Whole Year,Rich/Poor,M,,2767,Mean movement per day,Feer 1989,1,1 Male,,900
Cephalophus callipygus,C2,radio telemetry,Gabon,Whole Year,Rich/Poor,F,,3392,Mean movement per day,Feer 1989,1,1 Female,,900
Cephalophus callipygus,C3,radio telemetry,Gabon,Whole Year,Rich/Poor,F,,4288,Mean movement per day,Feer 1989,1,1 Female,,900
Cephalophus callipygus,C5,radio telemetry,Gabon,Whole Year,Rich/Poor,F,,1869,Mean movement per day,Feer 1989,1,1 Female,,900
Cephalophus dorsalis,D4,radio telemetry,Gabon,Whole Year,Rich/Poor,M,,4284,Mean movement per day,Feer 1989,1,1 Male,,900
Cephalophus dorsalis,D1,radio telemetry,Gabon,Whole Year,Rich/Poor,F,,1487,Mean movement per day,Feer 1989,1,1 Female,,900
Cephalophus dorsalis,D3,radio telemetry,Gabon,Whole Year,Rich/Poor,F,,1034,Mean movement per day,Feer 1989,1,1 Female,,900
Taurotragus derbianus,,radio telemetry,Central African Republic,Whole Year,Rich/Poor,,,13900,Mean movement per day,Bro-Jorgsen 1997,,,,
Muntiacus reevesi,,radio telemetry,England,Whole Year,Rich/Poor,,,1090,Mean movement per day,Chapman et al 1993,,,,
Xerus erythropus,,radio telemetry,Kenya,,,,,1540,Mean movement per day,Linn and Kay 1996,5,,,
Philantomba monticola,,radio telemetry,Gabon,Wet,Rich,M/F,,1164,Mean movement per day,Dubost 1980,22,,,
Philantomba monticola,,radio telemetry,Gabon,Dry,Poor,M/F,,910,Mean movement per day,Dubost 1980,22,,,
Cervus elaphus,F1,gps,"Parc National des Cevennes, France",Winter,Poor,F,,1355,Mean movement per day,Pepin et al 2009,1,1 Female,10800,
Cervus elaphus,F1,gps,"Parc National des Cevennes, France",Spring,Rich,F,,2413,Mean movement per day,Pepin et al 2009,1,1 Female,10800,
Cervus elaphus,F1,gps,"Parc National des Cevennes, France",Summer,Rich,F,,1990,Mean movement per day,Pepin et al 2009,1,1 Female,10800,
Cervus elaphus,F1,gps,"Parc National des Cevennes, France",Autumn,Rich,F,,2103,Mean movement per day,Pepin et al 2009,1,1 Female,10800,
Cervus elaphus,F2,gps,"Parc National des Cevennes, France",Winter,Poor,F,,2657,Mean movement per day,Pepin et al 2009,1,1 Female,10800,
Cervus elaphus,F2,gps,"Parc National des Cevennes, France",Spring,Rich,F,,2319,Mean movement per day,Pepin et al 2009,1,1 Female,10800,
Cervus elaphus,F2,gps,"Parc National des Cevennes, France",Summer,Rich,F,,2075,Mean movement per day,Pepin et al 2009,1,1 Female,10800,
Cervus elaphus,F2,gps,"Parc National des Cevennes, France",Autumn,Rich,F,,2645,Mean movement per day,Pepin et al 2009,1,1 Female,10800,
Cervus elaphus,M1,gps,"Parc National des Cevennes, France",Winter,Poor,M,,810,Mean movement per day,Pepin et al 2009,1,1 Male,10800,
Cervus elaphus,M1,gps,"Parc National des Cevennes, France",Spring,Rich,M,,1119,Mean movement per day,Pepin et al 2009,1,1 Male,10800,
Cervus elaphus,M1,gps,"Parc National des Cevennes, France",Summer,Rich,M,,1173,Mean movement per day,Pepin et al 2009,1,1 Male,10800,
Cervus elaphus,M1,gps,"Parc National des Cevennes, France",Autumn,Rich,M,,1272,Mean movement per day,Pepin et al 2009,1,1 Male,10800,
Cervus elaphus,M2,gps,"Parc National des Cevennes, France",Winter,Poor,M,,1011,Mean movement per day,Pepin et al 2009,1,1 Male,10800,
Cervus elaphus,M2,gps,"Parc National des Cevennes, France",Spring,Rich,M,,2299,Mean movement per day,Pepin et al 2009,1,1 Male,10800,
Cervus elaphus,M2,gps,"Parc National des Cevennes, France",Summer,Rich,M,,1655,Mean movement per day,Pepin et al 2009,1,1 Male,10800,
Cervus elaphus,M2,gps,"Parc National des Cevennes, France",Autumn,Rich,M,,2052,Mean movement per day,Pepin et al 2009,1,1 Male,10800,
