"","Trait","Reference","Format","Intercept1","Intercept1_Lower_95CI","Intercept1_Upper_95CI","a1","a1_Lower_95CI","a1_Upper_95CI","Intercept2","Intercept2_Lower_95CI","Intercept2_Upper_95CI","a2","a2_Lower_95CI","a2_Upper_95CI","b1","b1_Lower_95CI","b1_Upper_95CI","b2","b2_Lower_95CI","b2_Upper_95CI","c","c_Lower_95CI","c_Upper_95CI","Breakpoint","Breakpoint_Lower_95CI","Breakpoint_Upper_95CI","N_Species","Min_Mass_kg","Max_Mass_kg","AIC","AICc","Rsq","Adjusted_Rsq","P_Value","Delta_AICc"
"1","BMR","Kolocotrones et al 2010","Straight",0.487688223641768,0.463615011283428,0.511761436000107,3.07388930316438,2.90813800008273,3.24908771448935,NA,NA,NA,NA,NA,NA,0.732615427026383,0.712092868140898,0.753137985911869,NA,NA,NA,NA,NA,NA,NA,NA,NA,186,0.0083,407,-176.296656283212,-176.164788151344,0.964232983625266,0.964038597666708,4.97935584746234e-135,24.1488753628875
"2","BMR","Kolocotrones et al 2010","Quadratic",0.432670660937989,0.400495916117673,0.464845405758306,2.70813718805139,2.51475636540672,2.91638869283496,NA,NA,NA,NA,NA,NA,0.731021858834386,0.711604354583308,0.750439363085464,NA,NA,NA,0.0393805471474584,0.0231050464656837,0.0556560478292331,NA,NA,NA,186,0.0083,407,-196.12795889347,-195.906964418331,0.968194044767111,0.967846438698992,9.53943307295642e-138,4.40669909590025
"3","BMR","Kolocotrones et al 2010","Segmented",0.3868,NA,NA,2.43668842345958,NA,NA,0.3768,NA,NA,2.38122262327684,NA,NA,0.6381,0.5882,0.688,0.8465,0.7903,0.9027,NA,NA,NA,1.11704327937557,0.417734168724878,2.98675775503349,186,0.0083,407,-200.646996847565,-200.313663514232,0.96928948965318,0.968783272449661,2.09654913499073e-139,0
"4","Intake","Muller et al 2013","Straight",1.08858771677526,1.03191743926321,1.14525799428731,12.2627455488634,10.7626059368228,13.97198125425,NA,NA,NA,NA,NA,NA,0.758304160618753,0.726696262693305,0.789912058544202,NA,NA,NA,NA,NA,NA,NA,NA,NA,68,0.03,2583,-35.9689788494424,-35.5939788494424,0.972038210062888,0.971614546578993,5.40930997678859e-53,25.6395351461871
"5","Intake","Muller et al 2013","Quadratic",1.03693351960056,0.987058579790155,1.08680845941096,10.8876341618219,9.70640883264514,12.21260918281,NA,NA,NA,NA,NA,NA,0.656656970943101,0.612801390335514,0.700512551550689,NA,NA,NA,0.0521926095460189,0.0340395512717992,0.0703456678202386,NA,NA,NA,68,0.03,2583,-61.8684346305502,-61.2335139956295,0.981448459736709,0.980877643113223,5.27653873661046e-57,0
"6","Intake","Muller et al 2013","Segmented",1.056,NA,NA,11.3762728582343,NA,NA,0.8391,NA,NA,6.90398755727843,NA,NA,0.6054,0.5323,0.6785,0.8773,0.8209,0.9337,NA,NA,NA,6.29941180548558,2.11884896208665,18.706821403658,68,0.03,2583,-61.998063312761,-61.0303213772772,0.98202045451484,0.981177663320223,1.96496618136982e-57,0.203192618352361
